{
    "name": "GameControls",
    "maps": [
        {
            "name": "Gameplay",
            "id": "f9c03d52-37ed-4780-9a44-dab0730e88c7",
            "actions": [
                {
                    "name": "Move",
                    "type": "Value",
                    "id": "248d2cd2-a820-4c66-91c2-322b21ff8388",
                    "expectedControlType": "Vector2",
                    "processors": "",
                    "interactions": "",
                    "initialStateCheck": true
                },
                {
                    "name": "Interact",
                    "type": "Button",
                    "id": "b823cb2e-177d-42d2-beda-1d01f2c82c1f",
                    "expectedControlType": "Button",
                    "processors": "",
                    "interactions": "",
                    "initialStateCheck": false
                },
                {
                    "name": "Attack",
                    "type": "Button",
                    "id": "4ff4d8aa-a11a-4b52-b022-a6ca8eeb872e",
                    "expectedControlType": "Button",
                    "processors": "",
                    "interactions": "",
                    "initialStateCheck": false
                },
                {
                    "name": "Heal",
                    "type": "Button",
                    "id": "46364b2a-b215-425a-a74e-0e938fd02fb7",
                    "expectedControlType": "Button",
                    "processors": "",
                    "interactions": "",
                    "initialStateCheck": false
                },
                {
                    "name": "Pause",
                    "type": "Button",
                    "id": "0bca65e3-8bdd-4a97-8c7c-efbc1e336a59",
                    "expectedControlType": "Button",
                    "processors": "",
                    "interactions": "",
                    "initialStateCheck": false
                }
            ],
            "bindings": [
                {
                    "name": "",
                    "id": "7e82514b-ad19-4aed-b3db-d4dc36844dd4",
                    "path": "<Keyboard>/e",
                    "interactions": "",
                    "processors": "",
                    "groups": "",
                    "action": "Interact",
                    "isComposite": false,
                    "isPartOfComposite": false
                },
                {
                    "name": "",
                    "id": "4851f50d-1ab2-430b-9b60-8dbaec3f2baa",
                    "path": "<Keyboard>/space",
                    "interactions": "",
                    "processors": "",
                    "groups": "",
                    "action": "Attack",
                    "isComposite": false,
                    "isPartOfComposite": false
                },
                {
                    "name": "",
                    "id": "f4aa8f8d-2755-4c43-99b9-448c6dcc77e7",
                    "path": "<Keyboard>/q",
                    "interactions": "",
                    "processors": "",
                    "groups": "",
                    "action": "Heal",
                    "isComposite": false,
                    "isPartOfComposite": false
                },
                {
                    "name": "",
                    "id": "a525e52c-6aae-406b-a84c-a3741c651a71",
                    "path": "<Keyboard>/escape",
                    "interactions": "",
                    "processors": "",
                    "groups": "",
                    "action": "Pause",
                    "isComposite": false,
                    "isPartOfComposite": false
                },
                {
                    "name": "Keyboard",
                    "id": "2e705f55-d66d-4003-ae78-0d576c33d5f7",
                    "path": "2DVector",
                    "interactions": "",
                    "processors": "",
                    "groups": "",
                    "action": "Move",
                    "isComposite": true,
                    "isPartOfComposite": false
                },
                {
                    "name": "up",
                    "id": "40a53e67-4215-4246-8ef3-e56530b1de79",
                    "path": "<Keyboard>/w",
                    "interactions": "",
                    "processors": "",
                    "groups": "",
                    "action": "Move",
                    "isComposite": false,
                    "isPartOfComposite": true
                },
                {
                    "name": "down",
                    "id": "227d7494-bf1f-4ad7-8ebe-d6c30415aeb8",
                    "path": "<Keyboard>/s",
                    "interactions": "",
                    "processors": "",
                    "groups": "",
                    "action": "Move",
                    "isComposite": false,
                    "isPartOfComposite": true
                },
                {
                    "name": "left",
                    "id": "e2050ab3-84ed-437d-aeac-f3c945110756",
                    "path": "<Keyboard>/a",
                    "interactions": "",
                    "processors": "",
                    "groups": "",
                    "action": "Move",
                    "isComposite": false,
                    "isPartOfComposite": true
                },
                {
                    "name": "right",
                    "id": "2f3d7c27-2cc8-4b7f-9fea-ca45b4c2d935",
                    "path": "<Keyboard>/d",
                    "interactions": "",
                    "processors": "",
                    "groups": "",
                    "action": "Move",
                    "isComposite": false,
                    "isPartOfComposite": true
                }
            ]
        },
        {
            "name": "UI",
            "id": "6332fd9d-56d3-4e5f-a961-256838813b20",
            "actions": [
                {
                    "name": "Navigate",
                    "type": "Value",
                    "id": "277f40e8-da90-4b4a-bc84-8c720418fb17",
                    "expectedControlType": "Vector2",
                    "processors": "",
                    "interactions": "",
                    "initialStateCheck": true
                },
                {
                    "name": "Interact",
                    "type": "Button",
                    "id": "4a7b2d01-5553-456b-ad6f-a256fa9caae9",
                    "expectedControlType": "Button",
                    "processors": "",
                    "interactions": "",
                    "initialStateCheck": false
                },
                {
                    "name": "Unpause",
                    "type": "Button",
                    "id": "7a3959d7-aeb3-42aa-8338-7a3104301320",
                    "expectedControlType": "Button",
                    "processors": "",
                    "interactions": "",
                    "initialStateCheck": false
                }
            ],
            "bindings": [
                {
                    "name": "2D Vector",
                    "id": "6024c942-e795-4345-86b1-c342791f7e76",
                    "path": "2DVector",
                    "interactions": "",
                    "processors": "",
                    "groups": "",
                    "action": "Navigate",
                    "isComposite": true,
                    "isPartOfComposite": false
                },
                {
                    "name": "left",
                    "id": "c1d6bed9-bd66-46da-bf98-b61a83514b51",
                    "path": "<Keyboard>/a",
                    "interactions": "",
                    "processors": "",
                    "groups": "",
                    "action": "Navigate",
                    "isComposite": false,
                    "isPartOfComposite": true
                },
                {
                    "name": "right",
                    "id": "764d4ebd-ded4-4928-80a5-bc548ef2b0b3",
                    "path": "<Keyboard>/d",
                    "interactions": "",
                    "processors": "",
                    "groups": "",
                    "action": "Navigate",
                    "isComposite": false,
                    "isPartOfComposite": true
                },
                {
                    "name": "",
                    "id": "ad9da8df-4e94-4780-bc35-774666168fb2",
                    "path": "<Keyboard>/e",
                    "interactions": "",
                    "processors": "",
                    "groups": "",
                    "action": "Interact",
                    "isComposite": false,
                    "isPartOfComposite": false
                },
                {
                    "name": "",
                    "id": "86c769b0-bca7-4dc2-b6ad-ec0a9686d634",
                    "path": "<Keyboard>/escape",
                    "interactions": "",
                    "processors": "",
                    "groups": "",
                    "action": "Unpause",
                    "isComposite": false,
                    "isPartOfComposite": false
                }
            ]
        }
    ],
    "controlSchemes": []
}