%YAML 1.1
%TAG !u! tag:unity3d.com,2011:
--- !u!114 &11400000
MonoBehaviour:
  m_ObjectHideFlags: 0
  m_CorrespondingSourceObject: {fileID: 0}
  m_PrefabInstance: {fileID: 0}
  m_PrefabAsset: {fileID: 0}
  m_GameObject: {fileID: 0}
  m_Enabled: 1
  m_EditorHideFlags: 0
  m_Script: {fileID: 11500000, guid: 181125b01754b5540bf7a3a3b24415eb, type: 3}
  m_Name: Player Stats
  m_EditorClassIdentifier: 
  health: 100
  damage: 10
  walkSpeed: 3
  runSpeed: 3
